[
    {
        "address": "1152, Budapest Szentmih\u00e1lyi \u00fat 167-169", 
        "currency": "HUF", 
        "date": "2016-02-04 14:22:43", 
        "fuels": [
            {
                "name": "95", 
                "price": "308,40 Ft Ft"
            }, 
            {
                "name": "diesel", 
                "price": "289,90 Ft Ft"
            }
        ], 
        "latitude": null, 
        "longitude": null, 
        "name": "ENVI AsiaCenter", 
        "status": true, 
        "url": "http://www.envikut.hu/gasstation/envi/ENVI+AsiaCenter/"
    }, 
    {
        "address": "2330, Dunaharaszti N\u00e9medi \u00fat 69", 
        "currency": "HUF", 
        "date": "2016-02-04 14:22:44", 
        "fuels": [
            {
                "name": "95", 
                "price": "314,40 Ft Ft"
            }, 
            {
                "name": "diesel", 
                "price": "296,50 Ft Ft"
            }
        ], 
        "latitude": null, 
        "longitude": null, 
        "name": "ENVI Dunaharaszti N\u00e9medi \u00fat", 
        "status": true, 
        "url": "http://www.envikut.hu/gasstation/envi/ENVI+Dunaharaszti+N%C3%A9medi+%C3%BAt/"
    }, 
    {
        "address": "3527, Miskolc M\u00e9sztelep u.", 
        "currency": "HUF", 
        "date": "2016-02-04 14:22:45", 
        "fuels": [
            {
                "name": "95", 
                "price": "308,40 Ft Ft"
            }, 
            {
                "name": "diesel", 
                "price": "288,90 Ft Ft"
            }
        ], 
        "latitude": null, 
        "longitude": null, 
        "name": "ENVI Miskolc M\u00e9sztelep u.", 
        "status": true, 
        "url": "http://www.envikut.hu/gasstation/envi/ENVI+Miskolc+M%C3%A9sztelep+u./"
    }, 
    {
        "address": "2316, T\u00f6k\u00f6l Hermina \u00fat 1-3", 
        "currency": "HUF", 
        "date": "2016-02-04 14:22:46", 
        "fuels": [
            {
                "name": "95", 
                "price": "308,40 Ft Ft"
            }, 
            {
                "name": "diesel", 
                "price": "290,90 Ft Ft"
            }
        ], 
        "latitude": null, 
        "longitude": null, 
        "name": "ENVI T\u00f6k\u00f6l Airport Center", 
        "status": true, 
        "url": "http://www.envikut.hu/gasstation/envi/ENVI+T%C3%B6k%C3%B6l+Airport+Center/"
    }, 
    {
        "address": "9700, Szombathely 11-es Husz\u00e1r u. 210.", 
        "currency": "HUF", 
        "date": "2016-02-04 14:22:47", 
        "fuels": [
            {
                "name": "95", 
                "price": "309,50 Ft Ft"
            }, 
            {
                "name": "diesel", 
                "price": "289,00 Ft Ft"
            }
        ], 
        "latitude": null, 
        "longitude": null, 
        "name": "ENVI-METRO Szombathely", 
        "status": true, 
        "url": "http://www.envikut.hu/gasstation/envimetro/ENVI-METRO+Szombathely/"
    }, 
    {
        "address": "8000, Sz\u00e9kesfeh\u00e9rv\u00e1r Jezsuita u. 1.", 
        "currency": "HUF", 
        "date": "2016-02-04 14:22:48", 
        "fuels": [
            {
                "name": "95", 
                "price": "304,90 Ft Ft"
            }, 
            {
                "name": "diesel", 
                "price": "285,90 Ft Ft"
            }
        ], 
        "latitude": null, 
        "longitude": null, 
        "name": "ENVI-METRO Sz\u00e9kesfeh\u00e9rv\u00e1r", 
        "status": true, 
        "url": "http://www.envikut.hu/gasstation/envimetro/ENVI-METRO+Sz%C3%A9kesfeh%C3%A9rv%C3%A1r/"
    }, 
    {
        "address": "6728, Szeged Napf\u00e9ny park", 
        "currency": "HUF", 
        "date": "2016-02-04 14:22:50", 
        "fuels": [
            {
                "name": "95", 
                "price": "304,10 Ft Ft"
            }, 
            {
                "name": "diesel", 
                "price": "287,00 Ft Ft"
            }
        ], 
        "latitude": null, 
        "longitude": null, 
        "name": "ENVI Szeged Napf\u00e9ny Park", 
        "status": true, 
        "url": "http://www.envikut.hu/gasstation/envi/ENVI+Szeged+Napf%C3%A9ny+Park/"
    }, 
    {
        "address": "6728, Szeged Budapesti \u00fat", 
        "currency": "HUF", 
        "date": "2016-02-04 14:22:51", 
        "fuels": [
            {
                "name": "95", 
                "price": "304,10 Ft Ft"
            }, 
            {
                "name": "diesel", 
                "price": "285,70 Ft Ft"
            }
        ], 
        "latitude": null, 
        "longitude": null, 
        "name": "ENVI-METRO Szeged", 
        "status": true, 
        "url": "http://www.envikut.hu/gasstation/envimetro/ENVI-METRO+Szeged/"
    }, 
    {
        "address": "4400, Ny\u00edregyh\u00e1za Debreceni \u00fat", 
        "currency": "HUF", 
        "date": "2016-02-04 14:22:52", 
        "fuels": [
            {
                "name": "95", 
                "price": "316,90 Ft Ft"
            }, 
            {
                "name": "diesel", 
                "price": "297,20 Ft Ft"
            }
        ], 
        "latitude": null, 
        "longitude": null, 
        "name": "ENVI-METRO Ny\u00edregyh\u00e1za", 
        "status": true, 
        "url": "http://www.envikut.hu/gasstation/envimetro/ENVI-METRO+Ny%C3%ADregyh%C3%A1za/"
    }, 
    {
        "address": "3527, Miskolc J\u00f3zsef Attila \u00fat", 
        "currency": "HUF", 
        "date": "2016-02-04 14:22:53", 
        "fuels": [
            {
                "name": "95", 
                "price": "308,40 Ft Ft"
            }, 
            {
                "name": "diesel", 
                "price": "288,90 Ft Ft"
            }
        ], 
        "latitude": null, 
        "longitude": null, 
        "name": "ENVI-METRO Miskolc", 
        "status": true, 
        "url": "http://www.envikut.hu/gasstation/envimetro/ENVI-METRO+Miskolc/"
    }, 
    {
        "address": "1151, Budapest V\u00e1roskapu utca 9.", 
        "currency": "HUF", 
        "date": "2016-02-04 14:22:54", 
        "fuels": [
            {
                "name": "95", 
                "price": "306,90 Ft Ft"
            }, 
            {
                "name": "diesel", 
                "price": "288,90 Ft Ft"
            }
        ], 
        "latitude": null, 
        "longitude": null, 
        "name": "ENVI-METRO Kelet-Pest", 
        "status": true, 
        "url": "http://www.envikut.hu/gasstation/envimetro/ENVI-METRO+Kelet-Pest/"
    }, 
    {
        "address": "6000, Kecskem\u00e9t \u00darr\u00e9t 236.", 
        "currency": "HUF", 
        "date": "2016-02-04 14:22:56", 
        "fuels": [
            {
                "name": "95", 
                "price": "315,90 Ft Ft"
            }, 
            {
                "name": "diesel", 
                "price": "293,90 Ft Ft"
            }
        ], 
        "latitude": null, 
        "longitude": null, 
        "name": "ENVI-METRO Kecskem\u00e9t", 
        "status": true, 
        "url": "http://www.envikut.hu/gasstation/envimetro/ENVI-METRO+Kecskem%C3%A9t/"
    }, 
    {
        "address": "7400, Kaposv\u00e1r F\u00fcredi \u00fat 99", 
        "currency": "HUF", 
        "date": "2016-02-04 14:22:57", 
        "fuels": [
            {
                "name": "95", 
                "price": "313,40 Ft Ft"
            }, 
            {
                "name": "diesel", 
                "price": "292,90 Ft Ft"
            }
        ], 
        "latitude": null, 
        "longitude": null, 
        "name": "ENVI Kaposv\u00e1r Praktiker", 
        "status": true, 
        "url": "http://www.envikut.hu/gasstation/envi/ENVI+Kaposv%C3%A1r+Praktiker/"
    }, 
    {
        "address": "9012, Gy\u0151r M1 aut\u00f3p\u00e1lya", 
        "currency": "HUF", 
        "date": "2016-02-04 14:22:58", 
        "fuels": [
            {
                "name": "95", 
                "price": "308,90 Ft Ft"
            }, 
            {
                "name": "diesel", 
                "price": "293,90 Ft Ft"
            }
        ], 
        "latitude": null, 
        "longitude": null, 
        "name": "ENVI-METRO Gy\u0151r", 
        "status": true, 
        "url": "http://www.envikut.hu/gasstation/envimetro/ENVI-METRO+Gy%C5%91r/"
    }, 
    {
        "address": "2400, Duna\u00fajv\u00e1ros Parkcenter 2", 
        "currency": "HUF", 
        "date": "2016-02-04 14:23:00", 
        "fuels": [
            {
                "name": "95", 
                "price": "304,90 Ft Ft"
            }, 
            {
                "name": "diesel", 
                "price": "286,90 Ft Ft"
            }
        ], 
        "latitude": null, 
        "longitude": null, 
        "name": "ENVI Duna\u00fajv\u00e1ros Park Center", 
        "status": true, 
        "url": "http://www.envikut.hu/gasstation/envi/ENVI+Duna%C3%BAjv%C3%A1ros+Park+Center/"
    }, 
    {
        "address": "4031, Debrecen Balmaz\u00fajv\u00e1rosi \u00fat", 
        "currency": "HUF", 
        "date": "2016-02-04 14:23:01", 
        "fuels": [
            {
                "name": "95", 
                "price": "304,10 Ft Ft"
            }, 
            {
                "name": "diesel", 
                "price": "286,70 Ft Ft"
            }
        ], 
        "latitude": null, 
        "longitude": null, 
        "name": "ENVI-METRO Debrecen", 
        "status": true, 
        "url": "http://www.envikut.hu/gasstation/envimetro/ENVI-METRO+Debrecen/"
    }, 
    {
        "address": "2041, Buda\u00f6rs Budapark Keleti 3.", 
        "currency": "HUF", 
        "date": "2016-02-04 14:23:02", 
        "fuels": [
            {
                "name": "95", 
                "price": "303,50 Ft Ft"
            }, 
            {
                "name": "diesel", 
                "price": "284,90 Ft Ft"
            }
        ], 
        "latitude": null, 
        "longitude": null, 
        "name": "ENVI-METRO Buda\u00f6rs", 
        "status": true, 
        "url": "http://www.envikut.hu/gasstation/envimetro/ENVI-METRO+Buda%C3%B6rs/"
    }, 
    {
        "address": "2011, Budakal\u00e1sz Luppa-szigeti \u00fat 2.", 
        "currency": "HUF", 
        "date": "2016-02-04 14:23:03", 
        "fuels": [
            {
                "name": "95", 
                "price": "306,00 Ft Ft"
            }, 
            {
                "name": "diesel", 
                "price": "285,70 Ft Ft"
            }
        ], 
        "latitude": null, 
        "longitude": null, 
        "name": "ENVI-METRO Budakal\u00e1sz", 
        "status": true, 
        "url": "http://www.envikut.hu/gasstation/envimetro/ENVI-METRO+Budakal%C3%A1sz/"
    }
]